<?xml version="1.0" encoding="UTF-8" standalone="no"?>
<svg
   xmlns:dc="http://purl.org/dc/elements/1.1/"
   xmlns:cc="http://creativecommons.org/ns#"
   xmlns:rdf="http://www.w3.org/1999/02/22-rdf-syntax-ns#"
   xmlns:svg="http://www.w3.org/2000/svg"
   xmlns="http://www.w3.org/2000/svg"
   xmlns:sodipodi="http://sodipodi.sourceforge.net/DTD/sodipodi-0.dtd"
   xmlns:inkscape="http://www.inkscape.org/namespaces/inkscape"
   version="1.1"
   id="レイヤー_1"
   x="0px"
   y="0px"
   viewBox="0 0 114.5 160.30001"
   xml:space="preserve"
   sodipodi:docname="Silhouette.svg"
   width="114.5"
   height="160.3"
   inkscape:version="1.0.2 (e86c870879, 2021-01-15)"><metadata
   id="metadata714"><rdf:RDF><cc:Work
       rdf:about=""><dc:format>image/svg+xml</dc:format><dc:type
         rdf:resource="http://purl.org/dc/dcmitype/StillImage" /><dc:title></dc:title></cc:Work></rdf:RDF></metadata><defs
   id="defs712" /><sodipodi:namedview
   pagecolor="#ffffff"
   bordercolor="#666666"
   borderopacity="1"
   objecttolerance="10"
   gridtolerance="10"
   guidetolerance="10"
   inkscape:pageopacity="0"
   inkscape:pageshadow="2"
   inkscape:window-width="1270"
   inkscape:window-height="1402"
   id="namedview710"
   showgrid="false"
   fit-margin-top="0"
   fit-margin-left="0"
   fit-margin-right="0"
   fit-margin-bottom="0"
   inkscape:pagecheckerboard="true"
   inkscape:zoom="4.904784"
   inkscape:cx="97.150002"
   inkscape:cy="61.849995"
   inkscape:window-x="1283"
   inkscape:window-y="6"
   inkscape:window-maximized="0"
   inkscape:current-layer="レイヤー_1" />
<style
   type="text/css"
   id="style703">
	.st0{fill:#FFFFFF;}
</style>
<ellipse
   class="st0"
   cx="57.300003"
   cy="46.700001"
   rx="41.299999"
   ry="46.700001"
   id="ellipse705" />
<path
   class="st0"
   d="M 114.5,111.4 C 114.5,95.299998 101.4,82.199998 85.3,82.199998 H 29.2 c -16.1,0 -29.2,13.1 -29.2,29.200002 v 48.9 h 114.5 z"
   id="path707" />
</svg>
