<?xml version="1.0" encoding="UTF-8" standalone="no"?>
<svg
   xmlns:dc="http://purl.org/dc/elements/1.1/"
   xmlns:cc="http://creativecommons.org/ns#"
   xmlns:rdf="http://www.w3.org/1999/02/22-rdf-syntax-ns#"
   xmlns:svg="http://www.w3.org/2000/svg"
   xmlns="http://www.w3.org/2000/svg"
   xmlns:sodipodi="http://sodipodi.sourceforge.net/DTD/sodipodi-0.dtd"
   xmlns:inkscape="http://www.inkscape.org/namespaces/inkscape"
   version="1.1"
   x="0px"
   y="0px"
   viewBox="0 0 298.29999 426.70001"
   xml:space="preserve"
   id="svg945"
   sodipodi:docname="Medal_white.svg"
   width="298.29999"
   height="426.70001"
   inkscape:version="1.0.2 (e86c870879, 2021-01-15)"><metadata
   id="metadata951"><rdf:RDF><cc:Work
       rdf:about=""><dc:format>image/svg+xml</dc:format><dc:type
         rdf:resource="http://purl.org/dc/dcmitype/StillImage" /><dc:title></dc:title></cc:Work></rdf:RDF></metadata><defs
   id="defs949" /><sodipodi:namedview
   pagecolor="#ffffff"
   bordercolor="#666666"
   borderopacity="1"
   objecttolerance="10"
   gridtolerance="10"
   guidetolerance="10"
   inkscape:pageopacity="0"
   inkscape:pageshadow="2"
   inkscape:window-width="1270"
   inkscape:window-height="1402"
   id="namedview947"
   showgrid="false"
   inkscape:pagecheckerboard="true"
   fit-margin-top="0"
   fit-margin-left="0"
   fit-margin-right="0"
   fit-margin-bottom="0"
   inkscape:zoom="0.4137931"
   inkscape:cx="149.3"
   inkscape:cy="213.7"
   inkscape:window-x="1283"
   inkscape:window-y="6"
   inkscape:window-maximized="0"
   inkscape:current-layer="svg945" />
<style
   type="text/css"
   id="style925">
	.st0{fill:#FFFFFF;}
</style>
<g
   id="Layer_2"
   transform="translate(-413.2,-1004.3)">
</g>
<g
   id="Layer_1"
   transform="translate(-413.2,-1004.3)">
	<g
   id="g942">
		<rect
   x="440.20001"
   y="1154.3"
   class="st0"
   width="7.1999998"
   height="7.5999999"
   id="rect928" />
		<rect
   x="650.5"
   y="1131.8"
   class="st0"
   width="9.8999996"
   height="3.5999999"
   id="rect930" />
		<path
   class="st0"
   d="m 549.3,1146.8 h -19.1 c 2.1,4.2 5.2,7.8 9.3,10.5 4.1,-2.6 7.6,-6.1 9.8,-10.5 z"
   id="path932" />
		<rect
   x="650.5"
   y="1137.3"
   class="st0"
   width="9.8999996"
   height="3.8"
   id="rect934" />
		<path
   class="st0"
   d="m 660.8,1260 c 29.1,-27 47.4,-65.4 47.4,-108.2 0,-81.5 -66,-147.5 -147.5,-147.5 -81.5,0 -147.5,66 -147.5,147.5 0,45.5 20.6,86.1 53,113.2 l -49,136.1 50.9,-11.1 32.2,41 47.6,-132.3 c 4.2,0.4 8.5,0.7 12.8,0.7 6.8,0 13.4,-0.6 19.8,-1.5 l 47.9,133.1 32.2,-41 50.9,11.1 z M 479.9,1132.8 h 16 v -5.2 l 3.8,0.2 c 0,0.3 -0.3,0.5 -0.9,0.6 v 4.3 H 515 v 9 h -2.9 v -6.3 h -29.5 v 6.3 h -2.8 z m -41.9,-3.6 h 11.6 v 2.3 H 438 Z m -2,5.6 h 15 v 2.3 h -15 z m 1.8,8 v -2.3 h 12 v 2.3 z m 12,3.4 v 2.3 h -12 v -2.3 z m 0.1,18.1 h -9.6 v 2 h -2.4 V 1152 H 450 Z m 2.5,-0.1 -2.1,-1.4 c 2,-2.1 3.1,-5.7 3.5,-9.2 l 2.4,0.6 c -0.6,3.6 -1.5,7.6 -3.8,10 z m 0.9,-16.4 c -0.3,-0.6 -1.2,-1.6 -1.8,-2 3.6,-1.7 5.8,-4.3 7.2,-7.2 -1.9,-0.9 -3.9,-1.8 -5.7,-2.4 l 1.4,-2 c 1.7,0.6 3.4,1.3 5.2,2.1 0.5,-1.5 0.8,-3 1.1,-4.4 h -7.3 v -2.4 h 17.6 1.2 l 1.5,0.2 c -0.2,1.6 -0.2,14.1 -2,16.1 -1,1.2 -2,1.2 -4,1.2 -1,0 -2.4,0 -3.6,-0.1 0,-0.8 -0.3,-1.8 -0.8,-2.5 2.2,0.2 3.1,0.2 5,0.2 0.5,0 0.8,-0.1 1.1,-0.4 0.7,-0.8 1.1,-3.9 1.5,-12.1 h -7.6 c -0.3,1.8 -0.8,3.7 -1.4,5.6 2,1 3.9,2.1 5.2,3 l -1.4,2.2 c -1.2,-0.9 -2.9,-1.9 -4.7,-2.9 -1.4,2.9 -3.7,5.8 -7.7,7.8 z m 14.5,4.3 -1.9,1.8 c -1.5,-1.8 -4.7,-4.3 -7.5,-5.9 l 1.8,-1.6 c 2.8,1.5 6,3.9 7.6,5.7 z m -1.4,13.9 h -4.7 c -3,0 -3.7,-0.8 -3.7,-3.7 v -10.1 l 3.4,0.2 c 0,0.2 -0.3,0.5 -0.8,0.5 v 9.3 c 0,1 0.2,1.1 1.4,1.1 h 4.1 c 1.1,0 1.3,-0.6 1.4,-4.7 0.6,0.4 1.7,0.8 2.4,1.1 -0.3,5.1 -1,6.3 -3.5,6.3 z m 6.7,-1.9 c -0.5,-2.8 -2.4,-7.1 -4.6,-10.2 l 2.3,-0.9 c 2.3,3.1 4.2,7.2 4.9,10.1 z m 42.7,2 H 506 c -9,0 -15.6,-1.6 -19.5,-9.1 -1.5,4.1 -3.6,7.6 -6.6,9.8 -0.5,-0.6 -1.5,-1.4 -2.1,-1.8 4.6,-3.4 7,-9.8 8,-17.7 l 3.6,0.6 c -0.1,0.3 -0.3,0.5 -0.8,0.5 -0.2,1.7 -0.6,3.3 -1,4.9 1.8,4.7 4.6,7.2 8.3,8.6 v -18.4 h -10.7 v -2.7 h 24.7 v 2.7 h -11.1 v 7.4 h 12.9 v 2.7 h -12.9 v 9.1 c 2.2,0.4 4.6,0.6 7.3,0.6 1.5,0 8.9,0 10.8,0 -0.5,0.6 -1,1.9 -1.1,2.8 z m 41.3,0.7 c -7,-1.1 -13,-3.2 -17.9,-6.2 -5.2,3 -11.4,4.9 -17.8,6.1 -0.2,-0.8 -1,-2.1 -1.5,-2.7 6.1,-1 11.9,-2.6 16.9,-5.2 -3.9,-2.9 -7,-6.7 -9.2,-11.2 l 2.4,-0.9 h -6.6 v -2.8 h 14.5 v -6.9 h -16.8 v -2.8 h 16.8 v -6.7 l 3.7,0.2 c 0,0.3 -0.3,0.5 -0.8,0.6 v 5.8 h 17 v 2.8 h -17 v 6.9 h 10.3 l 0.5,-0.1 2.1,1.2 c -0.1,0.2 -0.3,0.3 -0.6,0.4 -2.4,5.7 -6.3,10 -11.1,13.3 4.7,2.6 10.4,4.3 16.9,5.2 -0.7,1 -1.4,2.2 -1.8,3 z m 60.4,-33.3 c 0.3,0.2 0.7,0.5 1,0.8 1,-1.8 2.1,-4.3 2.7,-6.1 l 2.7,1.2 c -0.1,0.2 -0.4,0.3 -0.8,0.3 -0.8,1.6 -2,4.1 -3.1,5.8 0.8,0.7 1.5,1.4 2,2 1,-1.8 2,-3.6 2.8,-5.1 l 2.6,1.3 c -0.1,0.2 -0.5,0.3 -0.9,0.3 -1.5,2.8 -4,6.6 -6.1,9.6 l 4.6,-0.3 c -0.4,-1 -0.8,-2 -1.3,-2.8 l 1.8,-0.7 c 1.2,1.9 2.2,4.5 2.5,6.1 l -1.9,0.8 c -0.1,-0.5 -0.2,-1 -0.4,-1.6 -3,0.3 -5.8,0.6 -7.8,0.8 0,0.3 -0.2,0.5 -0.5,0.6 l -0.9,-2.7 1.5,-0.1 c 1,-1.2 2,-2.7 3,-4.3 -1.1,-1.4 -3,-3.1 -4.6,-4.4 z m -21.3,-5.8 1.9,2.3 c -0.1,0 -0.2,0.1 -0.4,0.1 -0.1,0 -0.2,0 -0.4,0 -5.2,1.2 -14.4,2.1 -22,2.4 -0.1,-0.7 -0.4,-1.6 -0.7,-2.2 7.6,-0.4 16.7,-1.3 21.6,-2.6 z m -7.8,10.6 -2.3,0.5 c -0.1,-1.5 -0.6,-3.9 -1.2,-5.8 l 2.2,-0.4 c 0.6,1.8 1.2,4.2 1.3,5.7 z m -6.9,0.3 -2.3,0.8 c -0.2,-1.5 -1.2,-3.8 -2.1,-5.6 l 2.2,-0.7 c 1,1.8 1.9,4 2.2,5.5 z m -10.8,24.6 c 0,3.3 -1.6,3.5 -7.2,3.5 -0.1,-0.8 -0.5,-1.9 -0.9,-2.7 0.9,0 1.8,0 2.5,0 2.9,0 2.9,0 2.9,-0.9 v -11.8 l -4.8,1.7 c 0,0.3 -0.2,0.5 -0.5,0.6 l -1,-3.2 c 1.8,-0.5 4,-1.2 6.4,-1.9 v -9.4 h -6 v -2.6 h 6 v -8.8 l 3.5,0.2 c 0,0.3 -0.2,0.5 -0.8,0.6 v 8 h 4.7 v 2.6 h -4.7 v 8.6 l 3.4,-1.1 0.4,2.4 -3.8,1.4 z m 28.4,3.5 c -3.7,-0.8 -7,-2.1 -9.9,-3.8 -2.5,1.7 -5.5,3 -8.7,3.8 -0.3,-0.6 -1.1,-1.7 -1.6,-2.1 3,-0.7 5.7,-1.7 8.1,-3.2 -2.2,-1.7 -4.1,-3.7 -5.4,-5.9 l 2.3,-0.8 c 1.2,2 3,3.7 5.2,5.2 1.9,-1.6 3.5,-3.5 4.5,-5.9 h -11.7 c -1.6,5.2 -4,9.6 -7.3,12.6 -0.5,-0.5 -1.5,-1.2 -2.1,-1.6 4.2,-3.5 6.8,-9.4 8.2,-16.7 H 575 v -2.4 h 6.1 c 0.2,-1.2 0.4,-2.4 0.5,-3.7 h -6.2 v -2.3 h 15.9 l -0.5,-0.2 c 1.4,-1.9 3.2,-5.1 4.1,-7.3 l 3.1,1.1 c -0.1,0.2 -0.4,0.4 -0.8,0.4 -1,1.7 -2.5,4.2 -3.9,6 h 4.8 v 2.3 h -13.9 c -0.2,1.3 -0.3,2.5 -0.5,3.7 h 16.4 v 2.4 h -16.9 c -0.2,1.2 -0.5,2.3 -0.8,3.4 H 595 l 0.5,-0.1 1.6,0.8 c 0,0.2 -0.2,0.3 -0.3,0.4 -1.2,3.5 -3.1,6.3 -5.5,8.4 2.8,1.5 6,2.6 9.5,3.1 -0.6,0.6 -1.3,1.6 -1.7,2.4 z m 13.2,-0.1 h -2.6 v -20.4 c -1.3,4.8 -3.1,9.4 -5,12.2 -0.3,-0.7 -1,-1.8 -1.4,-2.3 2.4,-3.6 4.9,-10.5 6,-16.4 h -5.2 v -2.6 h 5.5 v -9.3 l 3.4,0.2 c 0,0.2 -0.2,0.5 -0.8,0.5 v 8.6 h 4.6 v 2.6 h -4.6 v 3.4 c 1.1,1.6 4,6.2 4.7,7.3 l -1.5,2.1 c -0.5,-1.3 -2,-4.1 -3.2,-6.2 z m 26.6,0.2 c -2.6,0 -4.6,-1.7 -6.2,-4.7 -2.2,1.7 -4.8,3.3 -7.6,4.4 -0.3,-0.5 -1,-1.4 -1.5,-1.8 3.1,-1.2 5.9,-2.8 8.1,-4.8 -0.9,-2.2 -1.6,-5 -2.2,-8.1 h -7 c -0.1,0.9 -0.2,1.8 -0.3,2.6 2.2,1.3 4.7,3 6.1,4.2 l -1.6,2 c -1.1,-1.1 -3,-2.5 -4.9,-3.7 -0.8,3.8 -2.3,7.3 -5.6,9.6 -0.4,-0.6 -1.1,-1.4 -1.7,-1.8 3.9,-2.8 5.1,-7.7 5.5,-12.9 h -2.8 v -2.3 h 12 c -1,-6.2 -1.4,-13.7 -1.4,-21.7 l 3.4,0.2 c 0,0.3 -0.2,0.5 -0.8,0.6 0,7.8 0.4,15 1.4,20.9 h 6.2 c -1.1,-0.9 -2.6,-1.9 -3.9,-2.6 l 1.4,-1.4 c 1.6,0.8 3.7,2.1 4.7,3.1 l -0.9,1 h 3.4 v 2.3 H 632 c 0.5,2.3 1,4.4 1.6,6.2 1.5,-1.6 2.7,-3.4 3.6,-5.4 l 2.9,1 c -0.1,0.2 -0.3,0.4 -0.8,0.4 -1.1,2.3 -2.7,4.4 -4.7,6.4 1.3,2.5 2.7,3.9 4.5,3.9 1.3,0 1.7,-1.1 2,-5 0.5,0.6 1.4,1.1 2,1.3 -0.6,4.6 -1.5,6.1 -4.2,6.1 z m 2.3,-20.3 c -0.1,-0.6 -0.3,-1.2 -0.6,-1.9 -3.1,0.4 -6,0.7 -8,0.8 0,0.3 -0.3,0.5 -0.6,0.5 l -0.9,-2.6 1.4,-0.1 c 0.8,-1.1 1.8,-2.5 2.7,-3.9 -1.1,-1.4 -3,-3.1 -4.6,-4.4 l 1.2,-1.5 1,0.8 c 1,-1.8 2.1,-4.3 2.7,-6.1 l 2.7,1.2 c -0.1,0.2 -0.4,0.3 -0.8,0.3 -0.8,1.6 -2,4 -3.1,5.7 0.8,0.7 1.5,1.4 2,2.1 1.1,-1.8 2,-3.6 2.8,-5.1 l 2.6,1.3 c -0.1,0.2 -0.4,0.3 -0.8,0.3 -1.5,2.6 -3.8,6.3 -5.9,9.1 1.5,-0.1 3.2,-0.2 5,-0.3 -0.4,-0.9 -0.9,-1.8 -1.3,-2.6 l 1.8,-0.7 c 1.2,1.9 2.4,4.4 2.7,6.1 z m 9.3,20.2 h -2.8 v -37.2 H 663 v 13.7 h -12.6 z m 4.8,-2 c -0.3,-0.5 -1.1,-1.4 -1.7,-1.9 6.3,-1.7 8.6,-4.3 9.4,-6.6 h -9.1 v -2.2 h 9.5 v -3.6 h -8.8 v -2.2 h 4.8 c -0.4,-1.1 -1.2,-2.6 -2,-3.7 l 2.2,-0.7 c 1,1.3 2,3.1 2.4,4.3 h -0.1 5.7 c 0.8,-1.3 1.8,-3.2 2.3,-4.5 l 3,1.2 c -0.1,0.2 -0.5,0.3 -0.8,0.3 -0.5,0.8 -1.3,2.1 -2,3.1 h 5.4 v 2.2 H 666 v 3.6 h 10.3 v 2.2 H 667 c 1.7,3.1 4.9,5.3 9.2,6.2 -0.4,0.3 -0.9,0.9 -1.3,1.5 1.1,0 2.2,0.1 3,0.1 1.8,0 2,0 2,-0.8 v -19.8 h -13 v -13.8 h 15.7 v 33.6 c 0,3.3 -1.5,3.5 -7,3.5 -0.1,-0.7 -0.5,-1.9 -0.8,-2.6 -0.1,0.2 -0.2,0.3 -0.3,0.5 -4.3,-1.2 -7.5,-3.6 -9.4,-7 -1,2.6 -3.6,5.2 -9.8,7.1 z"
   id="path936" />
		<rect
   x="669.79999"
   y="1137.3"
   class="st0"
   width="10.2"
   height="3.8"
   id="rect938" />
		<rect
   x="669.79999"
   y="1131.8"
   class="st0"
   width="10.2"
   height="3.5999999"
   id="rect940" />
	</g>
</g>
</svg>
