<?xml version="1.0" encoding="UTF-8" standalone="no"?>
<svg
   xmlns:dc="http://purl.org/dc/elements/1.1/"
   xmlns:cc="http://creativecommons.org/ns#"
   xmlns:rdf="http://www.w3.org/1999/02/22-rdf-syntax-ns#"
   xmlns:svg="http://www.w3.org/2000/svg"
   xmlns="http://www.w3.org/2000/svg"
   xmlns:sodipodi="http://sodipodi.sourceforge.net/DTD/sodipodi-0.dtd"
   xmlns:inkscape="http://www.inkscape.org/namespaces/inkscape"
   version="1.1"
   id="レイヤー_1"
   x="0px"
   y="0px"
   viewBox="0 0 112.57064 182.60001"
   xml:space="preserve"
   sodipodi:docname="Mann.svg"
   inkscape:version="1.0.2 (e86c870879, 2021-01-15)"><metadata
   id="metadata1062"><rdf:RDF><cc:Work
       rdf:about=""><dc:format>image/svg+xml</dc:format><dc:type
         rdf:resource="http://purl.org/dc/dcmitype/StillImage" /><dc:title></dc:title></cc:Work></rdf:RDF></metadata><defs
   id="defs1060" /><sodipodi:namedview
   pagecolor="#ffffff"
   bordercolor="#666666"
   borderopacity="1"
   objecttolerance="10"
   gridtolerance="10"
   guidetolerance="10"
   inkscape:pageopacity="0"
   inkscape:pageshadow="2"
   inkscape:window-width="1270"
   inkscape:window-height="1402"
   id="namedview1058"
   showgrid="false"
   inkscape:pagecheckerboard="true"
   fit-margin-top="0"
   fit-margin-left="0"
   fit-margin-right="0"
   fit-margin-bottom="0"
   inkscape:zoom="1.7470865"
   inkscape:cx="93.691245"
   inkscape:cy="92.275493"
   inkscape:window-x="1283"
   inkscape:window-y="6"
   inkscape:window-maximized="0"
   inkscape:current-layer="レイヤー_1" />
<style
   type="text/css"
   id="style1025">
	.st0{fill:none;stroke:#FFFFFF;stroke-width:5;stroke-linecap:round;stroke-miterlimit:10;}
	.st1{fill:#FFFFFF;}
	.st2{fill:none;stroke:#FFFFFF;stroke-width:3;stroke-linecap:round;stroke-linejoin:round;}
	.st3{fill:none;stroke:#FFFFFF;stroke-width:5;stroke-linecap:round;stroke-linejoin:round;}
</style>
<ellipse
   class="st0"
   cx="56.635319"
   cy="54.400002"
   rx="45.5"
   ry="51.900002"
   id="ellipse1027" />
<ellipse
   class="st1"
   cx="40.435322"
   cy="60.799999"
   rx="3.7"
   ry="5.5999999"
   id="ellipse1029" />
<ellipse
   class="st1"
   cx="72.735321"
   cy="60.799999"
   rx="3.7"
   ry="5.5999999"
   id="ellipse1031" />
<polyline
   class="st2"
   points="157.5,64.3 151.3,75.9 156.8,75.9 "
   id="polyline1033"
   transform="translate(-101.06468)" />
<path
   class="st2"
   d="m 40.735321,87.8 c 2.5,4 10,6 15.9,6 5.9,0 13.4,-2 15.9,-6"
   id="path1035" />
<path
   class="st3"
   d="m 13.235321,72.6 c -3.8,1 -7.7,-1.2 -8.7,-5 0,0 0,0 0,0 l -1.8,-6.7 c -1,-3.8 1.2,-7.7 5,-8.7 0,0 0,0 0,0 v 0"
   id="path1037" />
<path
   class="st3"
   d="m 99.335321,72.6 c 3.799999,1 7.699999,-1.2 8.699999,-5 0,0 0,0 0,0 l 1.8,-6.7 c 1,-3.8 -1.2,-7.7 -5,-8.7 0,0 0,0 0,0 v 0"
   id="path1039" />
<polygon
   class="st2"
   points="142.4,114 141.4,107.2 145.8,104.3 157.8,112.1 148.6,118.1 "
   id="polygon1041"
   transform="translate(-101.06468)" />
<polygon
   class="st2"
   points="171.8,114.7 173,106.6 169.5,104.3 157.6,112.1 166.8,118.1 "
   id="polygon1043"
   transform="translate(-101.06468)" />
<polygon
   class="st1"
   points="149.8,119 157.8,113.4 165.6,119 157.8,126.4 "
   id="polygon1045"
   transform="translate(-101.06468)" />
<polygon
   class="st1"
   points="151,152.5 154.4,121.7 160.9,121.7 164.5,153.6 159.5,172.2 154.5,172.2 "
   id="polygon1047"
   transform="translate(-101.06468)" />
<polygon
   class="st2"
   points="162,180.1 180.4,137.6 177.3,131.3 183,125.3 180.2,108.9 173.8,106.3 156.6,180.1 "
   id="polygon1049"
   transform="translate(-101.06468)" />
<polygon
   class="st2"
   points="152.3,180.1 133.9,137.6 137,131.3 131.3,125.3 134.1,108.9 140.5,106.3 157.8,180.1 "
   id="polygon1051"
   transform="translate(-101.06468)" />
<path
   class="st0"
   d="m 95.735321,130.1 c 0,-12.8 -10.4,-23.2 -23.2,-23.2 h -31.6 c -12.8,0 -23.2,10.4 -23.2,23.2 v 50 h 78.1 z"
   id="path1053" />
<path
   class="st1"
   d="m 93.935321,23.3 c -7.6,-11.3 -16.7,-18.6 -21,-17 -6.7,-6.1 -22.2,-4.6 -37,3.9 -8.3,4.8 -14.8,11 -18.6,17 -1.5,-0.9 -2.9,-1.8 -4.3,-2.8 -3.1,-1.8 -6.7,-1.5 -6,3.9 0,0 3.3,16.9 15.6,20.3 l 1.2,0.3 c 7.9,1.7 19.3,-0.7 30.3,-7.1 9.3,-5.4 16.3,-12.4 19.8,-19.1 1.7,3.6 3.6,7 5.8,10.2 8,11.9 17.6,19.3 21.599999,16.7 4,-2.6 0.6,-14.4 -7.399999,-26.3 z m -52.3,12.2 c 6.9,-0.8 13.7,-2.7 19.9,-5.8 -10.5,7.3 -18.2,9.9 -31.4,8.7 -8.1,-0.7 -10.8,-3.6 -10.8,-3.6 7.4,2.4 17.7,1.2 22.3,0.7 z m -13.9,9.3 c -8.3,-1.1 -11,-5.3 -11,-5.3 7.7,3.7 18.2,1.9 22.9,1.1 12.4,-2.1 25.7,-12.8 25.7,-12.8 -10,11.5 -24,18.7 -37.6,17 z m 62.8,-4.4 c -6.6,-5.1 -12.4,-15.3 -12.4,-15.3 0,0 6.7,8.4 10.9,11.8 2.3,1.9 4.9,3.4 7.8,4.4 l 0.8,3.7 c 0,-0.1 -1.6,-0.4 -7.1,-4.6 z"
   id="path1055" />
</svg>
